0.00    -90.00    0.00
0.00    -90.00    0.00
0.00    -90.00    0.00
0.00    -90.00    0.00
0.00    -90.00    0.00
20.00    -90.00    0.00
20.00    -90.00    01.00
20.00    -90.00    01.00
20.00    -90.00    01.00
20.00    -90.00    01.00
20.00    -90.00    01.00
20.00    -90.00    01.00
20.00    -90.00    01.00
20.00    -90.00    0.00
0.00    -90.00    0.00
0.00    -90.00    0.00
0.00    -90.00    0.00
0.00    -90.00    0.00
0.00    -90.00    0.00
-20.00    -90.00    20.00
-20.00    -90.00    20.00
-20.00    -90.00    20.00
-20.00    -90.00    20.00
-20.00    -90.00    20.00
-20.00    -90.00    20.00
60.00    -90.00    20.00
60.00    -90.00    20.00
60.00    -90.00    20.00
0.00    -90.00    0.00
60.00    -90.00    0.00
0.00    -90.00    0.00
0.00    -90.00    0.00
0.00    -90.00    0.00
0.00    -90.00    0.00
0.00    -90.00    80.00
0.00    -90.00    80.00
0.00    -90.00    80.00
0.00    -90.00    80.00
0.00    -90.00    80.00
0.00    -90.00    80.00
0.00    -90.00    0.00
0.00    -90.00    0.00
0.00    -90.00    0.00
0.00    -90.00    0.00
0.00    -90.00    0.00
0.00    -150.00    0.00
0.00    -150.00    0.00
0.00    -150.00    0.00
0.00    -150.00    0.00
0.00    -150.00    0.00
0.00    -150.00    0.00
0.00    -150.00    0.00
0.00    -150.00    0.00
0.00    -90.00    0.00
0.00    -90.00    0.00
0.00    -90.00    0.00
0.00    -90.00    0.00
0.00    -90.00    0.00
0.00    -90.00    50.00
0.00    -90.00    50.00
0.00    -90.00    50.00
0.00    -90.00    50.00
0.00    -90.00    60.00
0.00    -90.00    60.00
0.00    -90.00    60.00
0.00    -90.00    70.00
0.00    -90.00    70.00
0.00    -90.00    70.00
0.00    -90.00    70.00
0.00    -90.00    60.00
0.00    -90.00    60.00
0.00    -90.00    60.00
0.00    -90.00    50.00
0.00    -90.00    50.00
0.00    -90.00    50.00
0.00    -90.00    50.00
0.00    -90.00    0.00
0.00    -90.00    0.00
0.00    -90.00    0.00
0.00    -90.00    0.00
0.00    -90.00    0.00
0.00    -90.00    0.00
0.00    -90.00    0.00
0.00    -90.00    0.00
0.00    -90.00    0.00
0.00    -90.00    0.00
0.00    -90.00    0.00
0.00    -90.00    0.00
10.00    -90.00    0.00
10.00    -90.00    0.00
10.00    -90.00    0.00
10.00    -90.00    0.00
10.00    -90.00    0.00
10.00    -90.00    0.00
10.00    -90.00    0.00
10.00    -90.00    0.00
10.00    -90.00    0.00
10.00    -90.00    0.00
10.00    -90.00    0.00
10.00    -90.00    0.00
10.00    -90.00    0.00
10.00    -90.00    0.00
0.00    -90.00    0.00
0.00    -90.00    0.00
0.00    -90.00    0.00
0.00    -90.00    0.00
0.00    -90.00    0.00
0.00    -90.00    0.00
0.00    -90.00    0.00
0.00    -90.00    0.00
0.00    -90.00    0.00
0.00    -90.00    0.00
0.00    -90.00    0.00
0.00    -90.00    0.00
0.00    -90.00    0.00
0.00    -90.00    0.00
0.00    -90.00    0.00
0.00    -90.00    0.00
0.00    -90.00    0.00
0.00    -90.00    0.00
0.00    -90.00    0.00
0.00    -90.00    0.00
0.00    -90.00    0.00
0.00    -90.00    0.00
0.00    -90.00    0.00
0.00    -90.00    0.00
0.00    -90.00    0.00
0.00    -90.00    0.00
0.00    -90.00    0.00
0.00    -90.00    0.00
0.00    -90.00    0.00
0.00    -90.00    0.00
0.00    -90.00    0.00
0.00    -90.00    0.00
0.00    -90.00    0.00
0.00    -90.00    0.00
0.00    -90.00    0.00
0.00    -90.00    0.00
0.00    -90.00    0.00
0.00    -90.00    0.00
0.00    -90.00    0.00
0.00    -90.00    0.00
0.00    -90.00    0.00
0.00    -90.00    0.00
0.00    -90.00    0.00
0.00    -90.00    0.00
0.00    -90.00    0.00
0.00    -90.00    0.00
0.00    -90.00    0.00
0.00    -90.00    0.00
0.00    -90.00    0.00
0.00    -90.00    0.00
0.00    -90.00    0.00
0.00    -90.00    0.00
0.00    -90.00    0.00
0.00    -90.00    0.00
0.00    -90.00    0.00
0.00    -90.00    0.00
0.00    -90.00    0.00
0.00    -90.00    0.00
0.00    -90.00    0.00
0.00    -90.00    0.00
0.00    -90.00    0.00
0.00    -90.00    0.00
0.00    -90.00    0.00
0.00    -90.00    0.00
0.00    -90.00    0.00
0.00    -90.00    0.00
0.00    -90.00    0.00
0.00    -90.00    0.00
0.00    -90.00    0.00
0.00    -90.00    0.00
0.00    -90.00    0.00
0.00    -90.00    0.00
0.00    -90.00    0.00
0.00    -90.00    0.00
0.00    -90.00    0.00
0.00    -90.00    0.00
0.00    -90.00    0.00
0.00    -90.00    0.00
0.00    -90.00    0.00
0.00    -90.00    0.00
0.00    -90.00    0.00
0.00    -90.00    0.00
0.00    -90.00    0.00
0.00    -90.00    0.00
0.00    -90.00    0.00
0.00    -90.00    0.00
0.00    -90.00    0.00
0.00    -90.00    0.00
0.00    -90.00    0.00
0.00    -90.00    0.00